\relax 
\providecommand\hyper@newdestlabel[2]{}
\catcode `"\active 
\catcode `<\active 
\catcode `>\active 
\@nameuse{es@quoting}
\providecommand\HyperFirstAtBeginDocument{\AtBeginDocument}
\HyperFirstAtBeginDocument{\ifx\hyper@anchor\@undefined
\global\let\oldcontentsline\contentsline
\gdef\contentsline#1#2#3#4{\oldcontentsline{#1}{#2}{#3}}
\global\let\oldnewlabel\newlabel
\gdef\newlabel#1#2{\newlabelxx{#1}#2}
\gdef\newlabelxx#1#2#3#4#5#6{\oldnewlabel{#1}{{#2}{#3}}}
\AtEndDocument{\ifx\hyper@anchor\@undefined
\let\contentsline\oldcontentsline
\let\newlabel\oldnewlabel
\fi}
\fi}
\global\let\hyper@last\relax 
\gdef\HyperFirstAtBeginDocument#1{#1}
\providecommand\HyField@AuxAddToFields[1]{}
\providecommand\HyField@AuxAddToCoFields[2]{}
\newlabel{fig:undav-logo}{{}{1}{}{Doc-Start}{}}
\babel@aux{spanish}{}
\@writefile{toc}{\contentsline {section}{\numberline {1}Machine Learning}{4}{section.1}}
\@writefile{toc}{\contentsline {subsection}{\numberline {1.1}Python: Real World Machine Learning}{4}{subsection.1.1}}
\@writefile{toc}{\contentsline {subsubsection}{\numberline {1.1.1}The Realm of Supervised Learning}{4}{subsubsection.1.1.1}}
\@writefile{toc}{\contentsline {subsubsection}{\numberline {1.1.2}Constructing a Classifier}{4}{subsubsection.1.1.2}}
\@writefile{toc}{\contentsline {subsubsection}{\numberline {1.1.3}Predictive Modeling}{4}{subsubsection.1.1.3}}
\@writefile{toc}{\contentsline {subsubsection}{\numberline {1.1.4}Clustering with Unsupervised Learning}{4}{subsubsection.1.1.4}}
\@writefile{toc}{\contentsline {subsubsection}{\numberline {1.1.5}Building Recommendation Engines}{4}{subsubsection.1.1.5}}
\@writefile{toc}{\contentsline {subsubsection}{\numberline {1.1.6}Analyzing Text Data}{4}{subsubsection.1.1.6}}
\@writefile{toc}{\contentsline {subsubsection}{\numberline {1.1.7}Speech Recognition}{4}{subsubsection.1.1.7}}
\@writefile{toc}{\contentsline {subsubsection}{\numberline {1.1.8}Dissecting Time Series and Sequential Data}{4}{subsubsection.1.1.8}}
\@writefile{toc}{\contentsline {subsubsection}{\numberline {1.1.9}Image Content Analysis}{4}{subsubsection.1.1.9}}
\@writefile{toc}{\contentsline {subsubsection}{\numberline {1.1.10}Biometric Face Recognition}{4}{subsubsection.1.1.10}}
\@writefile{toc}{\contentsline {subsubsection}{\numberline {1.1.11}Deep Neural Networks}{4}{subsubsection.1.1.11}}
\@writefile{toc}{\contentsline {subsubsection}{\numberline {1.1.12}Visualizing Data}{4}{subsubsection.1.1.12}}
\@writefile{toc}{\contentsline {subsubsection}{\numberline {1.1.13}Unsupervised Machine Learning}{4}{subsubsection.1.1.13}}
\@writefile{toc}{\contentsline {subsubsection}{\numberline {1.1.14}Deep Belief Networks}{4}{subsubsection.1.1.14}}
\@writefile{toc}{\contentsline {subsubsection}{\numberline {1.1.15}Stacked Denoising Autoencoders}{4}{subsubsection.1.1.15}}
\@writefile{toc}{\contentsline {subsubsection}{\numberline {1.1.16}Convolutional Neural Networks}{4}{subsubsection.1.1.16}}
\@writefile{toc}{\contentsline {subsubsection}{\numberline {1.1.17}Semi-Supervised Learning}{4}{subsubsection.1.1.17}}
\@writefile{toc}{\contentsline {subsubsection}{\numberline {1.1.18}Text Feature Engineering}{4}{subsubsection.1.1.18}}
\@writefile{toc}{\contentsline {subsubsection}{\numberline {1.1.19}Feature Engineering Part II}{4}{subsubsection.1.1.19}}
\@writefile{toc}{\contentsline {subsubsection}{\numberline {1.1.20}Ensemble Methods}{4}{subsubsection.1.1.20}}
\@writefile{toc}{\contentsline {subsubsection}{\numberline {1.1.21}Additional Python Machine Learning Tools}{4}{subsubsection.1.1.21}}
\@writefile{toc}{\contentsline {subsubsection}{\numberline {1.1.22}First Steps to Scalability}{4}{subsubsection.1.1.22}}
\@writefile{toc}{\contentsline {subsubsection}{\numberline {1.1.23}Scalable Learning in Scikit-learn}{4}{subsubsection.1.1.23}}
\@writefile{toc}{\contentsline {subsubsection}{\numberline {1.1.24}Fast SVM Implementations}{4}{subsubsection.1.1.24}}
\@writefile{toc}{\contentsline {subsubsection}{\numberline {1.1.25}Neural Networks and Deep Learning}{4}{subsubsection.1.1.25}}
\@writefile{toc}{\contentsline {subsubsection}{\numberline {1.1.26}Deep Learning with TensorFlow}{4}{subsubsection.1.1.26}}
\@writefile{toc}{\contentsline {subsubsection}{\numberline {1.1.27}Classification and Regression Trees at Scale}{4}{subsubsection.1.1.27}}
\@writefile{toc}{\contentsline {subsubsection}{\numberline {1.1.28}Unsupervised Learning at Scale}{4}{subsubsection.1.1.28}}
\@writefile{toc}{\contentsline {subsubsection}{\numberline {1.1.29}Distributed Environments \IeC {\textendash } Hadoop and Spark}{4}{subsubsection.1.1.29}}
\@writefile{toc}{\contentsline {subsubsection}{\numberline {1.1.30}Practical Machine Learning with Spark}{4}{subsubsection.1.1.30}}
\@writefile{toc}{\contentsline {subsubsection}{\numberline {1.1.31}Introduction to GPUs and Theano}{4}{subsubsection.1.1.31}}
\@writefile{toc}{\contentsline {section}{\numberline {2}asd}{4}{section.2}}
\bibcite{ai-with-python}{1}
\bibcite{efficient-learning-machines}{2}
\bibcite{machine-learning-algorithms}{3}
